main.c:912:9:Transfer_Buffer	16	static
main.c:1064:6:Error_Handler	8	static,ignoring_inline_asm
main.c:247:6:SystemClock_Config	104	static
main.c:201:5:main	112	static
main.c:943:6:Complete_Reconfiguration	24	static
main.c:964:6:Check_Triggers	40	static
main.c:832:13:Stop_Sampling	24	static
main.c:1017:6:Sample_Channels	40	static
main.c:863:6:Process_USB_Data	64	static
